…
```r
> library(dplyr)
> kcl_sites %>% 
      group_by(SiteCode) %>%
      summarise(no_rows = length(SiteCode))
# A tibble: 354 × 2
   SiteCode no_rows
      <chr>   <int>
1       A30       4
2       AD1       4
3       AR1       4
4       AR2       4
5       BA1       2
6       BG1       4
7       BG2       4
8       BG3       4
9       BH0       4
10      BH1       4
# ... with 344 more rows
```
Whereas

```r
> kcl_sites <- openair::importMeta(source = "kcl", all = TRUE)
> names(kcl_sites)
 [1] "code"        "site"        "Address"     "la_id"       "Authority"   "site.type"   "os_grid_x"  
 [8] "os_grid_y"   "latitude"    "longitude"   "OpeningDate" "ClosingDate"
> kcl_sites %>% 
      group_by(code) %>%
      summarise(no_rows = length(code))
# A tibble: 896 × 2
     code no_rows
   <fctr>   <int>
1     A30       1
2     AB0       1
3     AD1       1
4     AG0       1
5     AH0       1
6     AM0       1
7     AM1       1
8     AN0       1
9     AR1       1
10    AR2       1
# ... with 886 more rows
```
…
